[
	"../vendors/jquery/dist/jquery.js",
	"../vendors/angular/angular.js",
	"../vendors/angular-i18n/angular-locale_ru-ru.js",
	"../vendors/angular-animate/angular-animate.js",
	"../vendors/angular-sanitize/angular-sanitize.js",
	"../vendors/angular-ui-router/release/angular-ui-router.js",

	"../vendors/angulartics/dist/angulartics.min.js",
	"../vendors/angulartics/dist/angulartics-ga.min.js",

	"ng/modules/extensions.compiled.js",
	"ng/modules/common.compiled.js"
]