<?xml version="1.0" encoding="UTF-8" standalone="no"?>
<svg width="16px" height="51px" viewBox="0 0 16 51" version="1.1" xmlns="http://www.w3.org/2000/svg" xmlns:xlink="http://www.w3.org/1999/xlink" xmlns:sketch="http://www.bohemiancoding.com/sketch/ns">
    <!-- Generator: Sketch 3.0.4 (8054) - http://www.bohemiancoding.com/sketch -->
    <title>arrow 7</title>
    <desc>Created with Sketch.</desc>
    <defs></defs>
    <g id="Pages" stroke="none" stroke-width="1" fill="none" fill-rule="evenodd" sketch:type="MSPage">
        <g id="Shelfs-iPad" sketch:type="MSArtboardGroup" transform="translate(-1746.000000, -760.000000)" fill="#E51907">
            <path d="M1759.85664,785.240955 L1746.13358,761.499637 C1745.85818,761.02264 1746.02223,760.411353 1746.50052,760.135211 C1746.98215,759.857143 1747.58999,760.022228 1747.86563,760.499637 L1761.86747,784.751546 C1761.98074,784.947732 1762.02003,785.202289 1762.01582,785.432361 C1762.01161,785.662433 1761.98074,785.803452 1761.86747,785.999637 L1747.86563,810.251546 C1747.58999,810.728956 1746.98215,810.89404 1746.50052,810.615973 C1746.02223,810.33983 1745.85818,809.728543 1746.13358,809.251546 L1753.02599,797.313527 C1755.4682,793.0835 1758.00337,788.701188 1759.85527,785.49361 C1759.85527,785.49361 1759.89197,785.433368 1759.89231,785.369495 C1759.89266,785.305621 1759.85664,785.240955 1759.85664,785.240955 Z" id="arrow-7" sketch:type="MSShapeGroup"></path>
        </g>
    </g>
</svg>